{
  "url": "https://jointest.ottuat.com/ott/web/api/users/v2/accountexists?userid=kemas@offer.com&fmt=json&iid=06289d37-5708-4c81-b59c-38850545bc4b&ver=1.0&aver=5.0&appver=2.0&appid=viu_desktop&platform=desktop",
  "response": {"response":{"exists":true,"ids":"","status":"success"}}
}
