{
  "url": "https://www.viu.com/ott/web/api/apps/v2/authenticate?appid=viu_desktop&iid=0a529ef0-7d07-11e8-878f-8bcd4e2b4bbc&ver=1.0&aver=5.0&fmt=json&contentCountry=id&contentFlavour=all&languageid=id&platform=desktop&userid=guest-0a529ef0-7d07-11e8-878f-8bcd4e2b4bbc&acct=test&useridtype=guest",
  "response": {
    "ip": "5.62.34.21",
    "country.supported": "true",
    "carrier.id": "0",
    "currtime": "1530432982746",
    "ccode": "ID",
    "geo": "10",
    "regionid": "all",
    "contentCountry": "id",
    "contentFlavour": "all",
    "supportedProgramming": "true",
    "default.languageid": "id",
    "programid": "60ee1214b13de4f0466292399d6d2565.id.default",
    "category.json.path": "https://d2405b0jymm2dk.cloudfront.net/program/prod/60ee1214b13de4f0466292399d6d2565/1530410048475/id/default/",
    "LastUpdated": "1460373105927",
    "autocomplete.search.url": "https://prod-in.viu.com/api/search/autosuggest?keyword=",
    "subtitle.langmap": "en:English,zh-cn:中文,zh-s:Traditional Chinese,ms:B.Malaysia,bh:Bahasa-in,th:Thai,tl:Tagalog,vi:Vietnamese,hi:Hindi,ar:Arabic,id:Indonesian,zh-tw:Traditional Chinese,zh-TW:Traditional Chinese",
    "app.url.faq.telekommalaysia": "https://s3-ap-southeast-1.amazonaws.com/appsboot.vuclip.com/resources/vplus_android/html/android/tm/faq.html",
    "app.url.faq": "https://s3-ap-southeast-1.amazonaws.com/appsboot.vuclip.com/resources/vplus_android/html/android/faq.html",
    "msisdn.headers": "username:vplus,password:vp1us",
    "offer.json": "https://d2405b0jymm2dk.cloudfront.net/offers/viu_desktop/",
    "ads.spaceid.mapping": "Korean:1197800930,English:1197800931,Bahasa Indonesia:1197800932,Bahasa:1197800932,Indonesian:1197800932,Chinese:1197800933,Mandarin:1197800933,Cantonese:1197800933,Other:1197800934",
    "appid": "viu_desktop",
    "liftigniter.enabled": "true",
    "app.languages": "en:English,id:Indonesian",
    "ads.midroll.enable": "true",
    "liftigniter.rollout.precentage": "5",
    "conviva.enable": "true",
    "uid": "0a529ef0-7d07-11e8-878f-8bcd4e2b4bbc",
    "campaign_act": "NA",
    "newaccount": "false",
    "new.user": "false",
    "useridtype": "guest",
    "billing_highlight": "false",
    "privilege_ads": "SHOW_ADS",
    "billing_status": "INACTIVE",
    "vuserid": "viu-guest-0a529ef0-7d07-11e8-878f-8bcd4e2b4bbc",
    "billing_starts": "0",
    "billing_expiry": "0",
    "userid": "guest-0a529ef0-7d07-11e8-878f-8bcd4e2b4bbc",
    "billing_partner": "Other",
    "billing_type": "Other",
    "privilege_content": "PREMIUM_BLOCKED",
    "subscriptionMode": "FREE",
    "authstatus": "success"
  },
  "method": "GET",
  "headers": {
    "x-viu-auth": "eyJhbGciOiJBMTI4S1ciLCJlbmMiOiJBMTI4Q0JDLUhTMjU2In0.TxQibm-Ple_J4HRjN-UERxk1JrNdKGSZKgTnN59UmCPrpOqpvkVYew.EJqiRXXvU8gsvT9scf8cYw.QrqKg_9wleiO-fMgEyU43gx-Rk5mCYS3PdH7AeCr6Qp5CFOSrviFwh_3EcGgWah9ByFWo9WqizWMs0Y0mywHy3pRr5zXnZpMkMkTdDgo75h3q5aex4Ycqzek78voF9yzn5Q6n02pDgxBwq3OI2Xd9fmGO_HWRkxJc6ynkmE7Bqx5M69vrj5ofd_OIhyRK0PgGY1vRKDuub3h8B6bQ03LgIrqjYw9Y3SPZVq31fyTQg9sSGWUHIhtE04ndSGYcSqSfyPTT1SPYHurIq0i4iS8PQ.Zoc2jGw46ZUoFWDTHXEkxQ"
  },
  "config": {
    "latency": 0,
    "status": 200
  }
}
