{
  "url": "https://d2405b0jymm2dk.cloudfront.net/program/prod/60ee1214b13de4f0466292399d6d2565/1530410048475/id/default/id/koreandrama.json",
  "response": {
    "container": [{
      "containertype": "list",
      "item": [{
        "tcid_16x9": 1163591121,
        "preferred_thumb": "withouttitle",
        "createtime": 1530410095813,
        "playlistItemsCount": 41,
        "description": "Di saat rumah sakit menjamur di banyak kota besar, ada desa-desa kecil di beberapa pulau yang tidak memiliki fasilitas medis. Rumah sakit kapal, yang mengelilingi banyak kepulauan untuk menyediakan pelayanan kesehatan, tidak memiliki peralatan medis yang memadai. Kapal itu pun tidak memiliki ruang operasi untuk keadaan darurat. Bahkan para dokter di kapal itu tidak terlalu berpengalaman. Ini tempat para dokter muda yang menjalani wajib militer. Para dokter tanpa pengalaman ini bertarung di pertempuran sepi untuk menyelamatkan nyawa mereka yang membutuhkan pertolongan.  Drama \"Hospital Ship\" (&#48337;&#50896;&#49440;) yang disiarkan 2017 ini menyajikan akting dari Ha Ji Won, Kang Min Hyuk, Lee Seo Won, Kim In Sik, dan Min A. ",
        "language": "Korean",
        "type": "playlist",
        "title": "Hospital Ship",
        "contenttype": "tvshows",
        "tcid_2x3_t": 1163710316,
        "tcid_4x3": 1163591119,
        "total": 41,
        "bgcolor": "#a7b7ac",
        "tcid_2x3": 1163710316,
        "tcid_4x3_t": 1163610598,
        "paid": false,
        "tver": 3,
        "id": "playlist-24911180",
        "updatetime": 1530410095813,
        "tcid_16x9_t": 1163610599,
        "tcid": 1163592695,
        "slug": "hospital_ship"
      }, {
        "tcid_16x9": 1163680470,
        "preferred_thumb": "withouttitle",
        "createtime": 1530410097052,
        "playlistItemsCount": 17,
        "description": "Bisakah tragedi dihindari jika diketahui sebelumnya? Dalam hidup, kita menyaksikan peristiwa-peristiwa besar dan kecil. Apa yang akan terjadi jika seseorang bisa meramalkan semua peristiwa itu? Seorang wanita, diperankan Suzy, bisa melihat kecelakaan yang terjadi di masa depan lewat mimpinya. Seorang jaksa, diperankan Lee Jong Suk, berjuang melakukan segala hal untuk mencegah mimpi itu terjadi. Bisakah mereka menyelamatkan dunia dari tragedi?  \"While You Were Sleeping\" (&#45817;&#49888;&#51060; &#51104;&#46304; &#49324;&#51060;&#50640;) adalah serial drama Korea Selatan yang tayang pada tahun 2017. ",
        "language": "Korean",
        "type": "playlist",
        "title": "While You Were Sleeping",
        "contenttype": "tvshows",
        "tcid_2x3_t": 1163764752,
        "tcid_4x3": 1163711284,
        "total": 17,
        "bgcolor": "#525175",
        "tcid_2x3": 1163764754,
        "tcid_4x3_t": 1163767880,
        "paid": false,
        "tver": -1,
        "id": "playlist-24989420",
        "updatetime": 1530410097052,
        "tcid_16x9_t": 1163767881,
        "tcid": 1163680258,
        "slug": "while_you_were_sleeping"
      }, {
        "tcid_16x9": 1163444988,
        "preferred_thumb": "withouttitle",
        "createtime": 1530410095849,
        "playlistItemsCount": 16,
        "description": "\"School 2017\" (&#54617;&#44368; 2017) merupakan bagian ketujuh dari seri drama remaja populer, 'School'. Pada tahun 1994, orang-orang menggembar-gemborkan reformasi pendidikan. Setelah 13 tahun berlalu, tetap tidak ada perubahan. Drama ini menjadi peringatan bagi semuanya bahwa sekarang sudah saatnya ada perubahan di dalam masyarakat.'School 2017' akan menunjukkan kehidupan anak-anak berusia 18 tahun yang cerdas dan ceria, serta usaha dan perjuangan mereka dalam mewujudkan keinginan mereka. Beberapa aktor dan aktris muda ambil bagian di drama ini, mereka adalah Kim Se Jeong, Kim Jung Hyun, dan Jang Dong Yoon. ",
        "language": "Korean",
        "type": "playlist",
        "title": "School 2017",
        "contenttype": "tvshows",
        "tcid_2x3_t": 1163787726,
        "tcid_4x3": 1163444985,
        "total": 16,
        "bgcolor": "#bbb2af",
        "tcid_2x3": 1163710290,
        "tcid_4x3_t": 1163444984,
        "paid": false,
        "tver": 2,
        "id": "playlist-24859792",
        "updatetime": 1530410095849,
        "tcid_16x9_t": 1163444987,
        "tcid": 1163447878,
        "slug": "school_2017"
      }, {
        "tcid_16x9": 1163778548,
        "preferred_thumb": "withouttitle",
        "createtime": 1530410095865,
        "playlistItemsCount": 40,
        "description": "Hyun Soo bermimpi menjadi penulis naskah drama. Demi mengejar cita-citanya itu, dia pun berhenti dari pekerjaannya. Jung Sun bermimpi menjadi seorang chef. Saat masih kecil, dia bisa merasa bersemangat setelah memakan masakan ibunya. Kedua orang ini bertemu sebelum dan setelah mereka mencapai mimpi mereka. Tapi pasangan ini memiliki masalah dengan konsep cinta. Hyun Soo terhalang oleh masyarakat yang mengatakan dia tidak boleh mencintai pria yang enam tahun lebih muda darinya. Sedangkan Jung Sun terhalang oleh pemikirannya sendiri yang melarangnya mencintai seseorang jika dia tidak bisa menyokongnya. Terlepas dari situasi mereka, Hyun Soo dan Jung Sun pun jatuh cinta.  Seo Hyun Jin, Yang Se Jong, Jo Bo Ah, dan Kim Jae Wook beradu akting dengan sangat apik di \"Temperature of Love\" (&#49324;&#46993;&#51032; &#50728;&#46020;). Drama ini menjadi salah satu drama terfavorit di tahun 2017. ",
        "language": "Korean",
        "type": "playlist",
        "title": "Temperature of Love",
        "contenttype": "tvshows",
        "tcid_2x3_t": 1163778549,
        "tcid_4x3": 1163778546,
        "total": 40,
        "bgcolor": "#ccb2ac",
        "tcid_2x3": 1163778550,
        "tcid_4x3_t": 1163778545,
        "paid": false,
        "tver": 2,
        "id": "playlist-24946872",
        "updatetime": 1530410095865,
        "tcid_16x9_t": 1163778547,
        "tcid": 1163658458,
        "slug": "temperature_of_love"
      }, {
        "tcid_16x9": 1163548299,
        "preferred_thumb": "withouttitle",
        "createtime": 1530410095883,
        "playlistItemsCount": 16,
        "description": "\"Live Up To Your Name, Dr. Heo\" (&#47749;&#48520;&#54728;&#51204;) adalah drama fantasi medis mengenai tabib dari dinasti Joseon yang pergi 400 tahun ke masa depan dan bertemu dengan dokter modern. Heo Im, diperankan oleh Kim Nam Gil, bertemu dengan Choi Yeon Kyung, diperankan oleh Kim A Joong. Berbeda dengan Heo Im, Yeon Kyung hanya memercayai pengobatan modern. Bisa dibilang, drama korea ini memberikan nuansa baru di drama-drama bergenre medis.",
        "language": "Korean",
        "type": "playlist",
        "title": "Live Up To Your Name, Dr. Heo",
        "contenttype": "tvshows",
        "tcid_2x3_t": 1163788146,
        "tcid_4x3": 1163548296,
        "total": 16,
        "bgcolor": "#9c9393",
        "tcid_2x3": 1163548315,
        "tcid_4x3_t": 1163548287,
        "paid": false,
        "tver": 2,
        "id": "playlist-24901001",
        "updatetime": 1530410095883,
        "tcid_16x9_t": 1163548298,
        "tcid": 1163547765,
        "slug": "live_up_to_your_name_dr_heo"
      }, {
        "tcid_16x9": 1163616864,
        "preferred_thumb": "withouttitle",
        "createtime": 1530410095900,
        "playlistItemsCount": 54,
        "description": "Belum lama ini, orang-orang mulai membicarakan perbedaan kasta di masyarakat. Kasta anak-anak ditentukan sejak lahir, bergantung pada kekuasaan dan kekayaan orang tuanya. Semua orang berimpian menjadi sukses dan memiliki hidup bahagia, tapi tampaknya batas hierarki tersebut lebih sulit ditembus zaman sekarang. Seorang wanita berjuang untuk menaiki tangga hierarki tersebut. Dalam prosesnya, dia menyadari cara mendapatkan kebahagiaan yang sesungguhnya. Drama ini akan menghibur orang-orang yang masih memiliki harapan dan impian untuk terlepas dari kehidupan yang sulit.  \"My Golden Life\" (&#54889;&#44552;&#48731; &#45236; &#51064;&#49373;) tayang mulai bulan September 2017 dan dibintangi oleh Park Si Hoo, Shin Hye Sun, Lee Tae Hwan, dan masih banyak lagi. Drama keluarga yang satu ini tepat sekali untuk dinikmati bersama keluarga di akhir pekan. ",
        "language": "Korean",
        "type": "playlist",
        "title": "My Golden Life",
        "contenttype": "tvshows",
        "tcid_2x3_t": 1163801402,
        "tcid_4x3": 1163616862,
        "total": 54,
        "bgcolor": "#bf9c8a",
        "tcid_2x3": 1163710285,
        "tcid_4x3_t": 1163801394,
        "paid": false,
        "tver": 2,
        "id": "playlist-24921081",
        "updatetime": 1530410095900,
        "tcid_16x9_t": 1163801396,
        "tcid": 1163614369,
        "slug": "my_golden_life"
      }, {
        "tcid_16x9": 1153223014,
        "preferred_thumb": "withouttitle",
        "createtime": 1530410097031,
        "playlistItemsCount": 50,
        "description": "&quot;Lee Soon Shin (IU) was found as abandoned at a bus stop when she was just a baby. Kim Jung Ae (Go Doo Shim) lovingly raised her as her own when her husband brought her home after finding her. Soon Shin has no idea that she was adopted, and grows up alongside the couple&#8217;s other daughters, Hey Shin (Son Tae Young) and Yoo Shin (Yoo In Na).   Each daughter faces their own individual struggle after their father passes away. The eldest, Hye Sin, is now a divorced single mother trying to re-enter the workforce. The middle daughter, Yoo Shin, avoids marriage and motherhood, choosing to throw herself into work. Soon Shin is part of the &#8220;880,000 won generation&#8221;, college graduates unable to find jobs and end up working in low-paying temp jobs who eventually learns she is adopted and goes through a rocky journey to mend her relationship with her birth mother.   This family drama showcases the strength of each individual woman as they attempt to find happiness and realise the true meaning of success. &quot;",
        "language": "Korean",
        "type": "playlist",
        "title": "You Are The Best",
        "contenttype": "tvshows",
        "tcid_2x3_t": 1163710603,
        "tcid_4x3": 1153222996,
        "total": 50,
        "bgcolor": "#ccc4ab",
        "tcid_2x3": 1163638522,
        "tcid_4x3_t": 1153222976,
        "paid": false,
        "tver": 2,
        "id": "playlist-24331042",
        "updatetime": 1530410097031,
        "tcid_16x9_t": 1153223008,
        "tcid": 1148296011,
        "slug": "you_are_the_best"
      }, {
        "tcid_16x9": 1163591169,
        "preferred_thumb": "withouttitle",
        "createtime": 1530410097196,
        "playlistItemsCount": 40,
        "description": "Hae Sung, diperankan oleh Yeo Jin Goo, menghilang setelah kecelakaan misterius. 12 tahun kemudian, tiba-tiba dia kembali muncul. Kini dia berusia 31 tahun, namun penampilan dan kepribadiannya masih berusia 19 seperti ketika dirinya menghilang. Hae Sung memiliki hubungan romantis dengan Jung Won, diperankan oleh Lee Yeon Hee, yang merupakan teman masa kecilnya. Tonton \"Reunited Worlds\" (&#45796;&#49884; &#47564;&#45212; &#49464;&#44228;) dengan subtitle bahasa Indonesia di VIU. ",
        "language": "Korean",
        "type": "playlist",
        "title": "Reunited Worlds",
        "contenttype": "tvshows",
        "tcid_2x3_t": 1163710499,
        "tcid_4x3": 1163591168,
        "total": 40,
        "bgcolor": "#b6aca6",
        "tcid_4x3_t": 1163750129,
        "paid": false,
        "tver": -1,
        "id": "playlist-24862187",
        "updatetime": 1530410097196,
        "tcid_16x9_t": 1163750130,
        "tcid": 1163457570,
        "slug": "reunited_worlds"
      }, {
        "tcid_16x9": 1157894265,
        "preferred_thumb": "withouttitle",
        "createtime": 1530410095955,
        "playlistItemsCount": 62,
        "language": "Korean",
        "type": "playlist",
        "title": "Queen Seondeok",
        "contenttype": "tvshows",
        "tcid_2x3_t": 1163787782,
        "tcid_4x3": 1157894253,
        "total": 62,
        "bgcolor": "#4f3a35",
        "tcid_2x3": 1163710377,
        "tcid_4x3_t": 1157894239,
        "paid": false,
        "tver": 2,
        "id": "playlist-24557967",
        "updatetime": 1530410095955,
        "tcid_16x9_t": 1157894260,
        "tcid": 1157056608,
        "slug": "queen_seondeok"
      }, {
        "tcid_16x9": 1163475600,
        "preferred_thumb": "withouttitle",
        "playlistItemsCount": 20,
        "description": "Melalui analisis profil, Agen Biro Investigasi Kriminal bertarung melawan berbagai penjahat untuk menegakkan keadilan. Agen Biro Investigasi Kriminal akan menganalisis kebiasaan para pelaku kejahatan dan menggunakan analisis profil untuk mengumpulkan bukti yang bisa digunakan untuk memecahkan kasus. Berlatar tempat di Korea, 'Criminal Minds:Korea' menggambarkan kejadian yang cocok dengan latar belakang, serta menunjukkan cerita dan kehidupan beberapa karakter. Drama yang merupakan adaptasi serial internasional terkenal Amerika, \"Criminal Minds\" ini tayang tahun 2017 dengan judul \"Criminal Minds: Korea\" (&#53356;&#47532;&#48120;&#45328; &#47560;&#51064;&#46300;), dan dibintangi oleh Lee Joon Gi, Moon Chae Won, Son Hyun Joo, dan beberapa aktor dan aktris lainnya. ",
        "language": "Korean",
        "type": "playlist",
        "title": "Criminal Minds : Korea",
        "tcid_4x3": 1163475599,
        "total": 20,
        "tcid_2x3": 1163710707,
        "tcid_4x3_t": 1163478045,
        "tver": 2,
        "id": "playlist-24872447",
        "slug": "criminal_minds_korea",
        "createtime": 1530410095976,
        "tagcolor": "#07d6bc",
        "tagtextcolor": "#FFFFFF",
        "contenttype": "tvshows",
        "tcid_2x3_t": 1163710215,
        "bgcolor": "#36465a",
        "paid": false,
        "updatetime": 1530410095976,
        "tcid_16x9_t": 1163478047,
        "tcid": 1163478003,
        "tagtext": "Fresh"
      }, {
        "tcid_16x9": 1161436345,
        "preferred_thumb": "withouttitle",
        "createtime": 1530410097111,
        "playlistItemsCount": 20,
        "description": "Drama historis ini menyoroti Ratu yang diturunkan dari takhtanya setelah baru tujuh hari. Nona Shin, atau Ratu Dan Gyeong (Park Min Young) saat sedang bertakhta, konon diusir secara paksa dari istana oleh saingan politiknya. Dia dikenal sebagi Ratu yang memerintah dalam waktu terpendek dalam sejarah Korea. Juga diketahui bahwa Raja dan Ratu menghabiskan sisa hidup mereka saling merindu setelah diusir.  Tidak hanya Park Min Young yang terlibat dalam drama fiksi ini, tapi juga ada Yeon Woo Jin dan Lee Dong Gun. Drama Korea \"Queen for Seven Days\" (7&#51068;&#51032; &#50773;&#48708;) yang berfokus pada cinta dan perjuangan wanita yang enggan ditarik ke dunia politik ini ditayangkan pada tahun 2017. ",
        "language": "Korean",
        "type": "playlist",
        "title": "Queen For Seven Days",
        "contenttype": "tvshows",
        "tcid_2x3_t": 1163710470,
        "tcid_4x3": 1161436302,
        "total": 20,
        "bgcolor": "#d4bda9",
        "tcid_4x3_t": 1161436293,
        "paid": false,
        "tver": 2,
        "id": "playlist-24763917",
        "updatetime": 1530410097111,
        "tcid_16x9_t": 1161436727,
        "tcid": 1161318094,
        "slug": "queen_for_seven_days"
      }, {
        "tcid_16x9": 1163638530,
        "preferred_thumb": "withouttitle",
        "createtime": 1530410096009,
        "playlistItemsCount": 8,
        "description": "Drakor yang bersetting tahun 70-an ini bercerita tentang sekelompok gadis remaja yang dipimpin oleh seorang anak dari keluarga pemilik perusahaan mainan. Suatu hari, seorang siswa pindahan dari Seoul bergabung dengan kelas mereka dan menjadi pusat perhatian. Muncullah persaingan dan kecemburuan diantara mereka. Selain tentang cerita di sekolah, ada juga  kisah misterius tentang menghilangnya satu persatu karyawan di perusahaan mainan. Apa sih yang sebenarnya terjadi? Temukan jawabannya dengan nonton online di VIU drama Korea \"Girl's Generation 1979\" &#46976;&#51228;&#47532; &#49548;&#45376; &#49884;&#45824; yang dibintangi oleh aktris Min Do-Hee dari K-pop &#8220;Tiny-G&#8220;, aktor tampan Lee Jong-Hyun dari CNBLUE, Bona (WJSN) dan masih banyak lagi. ",
        "language": "Korean",
        "type": "playlist",
        "title": "Girls' Generation 1979",
        "contenttype": "tvshows",
        "tcid_2x3_t": 1163787536,
        "tcid_4x3": 1163638528,
        "total": 8,
        "bgcolor": "#eac9a8",
        "tcid_2x3": 1163710284,
        "tcid_4x3_t": 1163638527,
        "paid": false,
        "tver": 2,
        "id": "playlist-24932532",
        "updatetime": 1530410096009,
        "tcid_16x9_t": 1163638529,
        "tcid": 1163639123,
        "slug": "girls_generation_1979"
      }, {
        "tcid_16x9": 1163592546,
        "preferred_thumb": "withouttitle",
        "createtime": 1530410099648,
        "playlistItemsCount": 24,
        "description": "&quot;King Gongmin (Ryu Deok Hwan) had just married the Yuan princess Noguk (Park Se Young) and was returning to Goryeo when they were attacked, leaving the queen fatally injured. A royal advisor tells the king to order his royal bodyguard, Choi Young (Lee Min Ho), to pass through a mystical portal called &#8220;heaven&#8217;s gate&#8221; and find &#8220;heaven&#8217;s doctor&#8221;.   The portal actually transports Choi Young to the future, where he finds Eun Soon (Yoo Eun Soo), a modern-day doctor from Seoul, and brings her back to save the queen&#8217;s life. He promises to bring her back to present day but the scheming royal advisor convinces King Gong Min to force her to stay.   Eun Soo is forced to learn how to get by in her new surroundings. Gradually, Chong Young and Eun Soo fall in love with each other but their love is threatened when Eun Soo becomes a pawn in the political power play between King Gongmin, the Yuan overlords, and scheming members of the royal family.&quot;",
        "language": "Korean",
        "type": "playlist",
        "title": "The Great Doctor",
        "contenttype": "tvshows",
        "tcid_2x3_t": 1163710563,
        "tcid_4x3": 1163592544,
        "total": 24,
        "bgcolor": "#513a34",
        "tcid_4x3_t": 1105343738,
        "paid": false,
        "tver": 2,
        "id": "playlist-21988412",
        "updatetime": 1530410099648,
        "tcid_16x9_t": 1108228904,
        "tcid": 1086088468,
        "slug": "the_great_doctor"
      }, {
        "id": ""
      }],
      "bgcolor": "#a7b7ac",
      "logic": "Curated",
      "id": "10_2_10_2",
      "title": "Drama Korea Terpanas",
      "type": "list",
      "slug": "hottest_korean_drama",
      "contenttype": "tvshows"
    }, {
      "containertype": "list",
      "item": [{
        "tcid_16x9": 1140883231,
        "preferred_thumb": "withouttitle",
        "createtime": 1530410098162,
        "playlistItemsCount": 19,
        "description": "Setiap jiwa pernah disentuh oleh dewa, paling tidak satu kali. Jika kalian merasa jauh dari dunia ini tapi merasa ada kekuatan yang menarik kalian semakin dekat, itu perbuatan dewa. Dalam drama ini, ada siluman yang membutuhkan pengantin manusia untuk mengakhiri keabadiannya. Malaikat Maut yang lupa ingatan juga hidup bersamanya, ditambah kehadiran seorang gadis yang mengaku sebagai pengantin siluman tersebut. \"Goblin\" yang juga dikenal dengan judul \"Guardian: The Lonely and Great God\" (&#50424;&#50424;&#54616;&#44256; &#52268;&#46976;&#54616;&#49888; &#8211; &#46020;&#44648;&#48708;) dirilis tahun 2016 dan menjadi salah satu drama Korea paling populer tahun 2017. Tonton drama yang dibintangi oleh Gong Yoo, Kim Go Eun, Lee Dong Wook, Yoo In Na, Yook Sung Jae, secara maraton dengan subtitle bahasa Indonesia. ",
        "language": "Korean",
        "type": "playlist",
        "title": "Goblin",
        "contenttype": "tvshows",
        "tcid_2x3_t": 1163710292,
        "tcid_4x3": 1140883209,
        "total": 19,
        "bgcolor": "#aba399",
        "tcid_4x3_t": 1140883181,
        "paid": false,
        "tver": 3,
        "id": "playlist-24207426",
        "updatetime": 1530410098162,
        "tcid_16x9_t": 1164266287,
        "tcid": 1140874182,
        "slug": "goblin"
      }, {
        "tcid_16x9": 1163361318,
        "preferred_thumb": "withouttitle",
        "createtime": 1530410097326,
        "playlistItemsCount": 40,
        "description": "Sebuah komedi romantis yang bercerita tentang jaksa cerdik Noh Ji Wook dan peserta magang departemen kehakiman, Eun Bong Hee. Mereka bekerja sama dalam memecahkan kasus misterius yang melibatkan pembunuh amnesia.  Tidak hanya menegangkan, tapi drakor yang tayang pada pertengahan tahun 2017 ini, juga memperlihatkan ikatan dari Ji Chang Wook dan Nam Ji Hyun. Tonton sampai episode akhir \"Love In Trouble\" atau \"Suspicious Partner\" (&#49688;&#49345;&#54620; &#54028;&#53944;&#45320;), dengan subtitle bahasa Indonesia, hanya di VIU. ",
        "language": "Korean",
        "type": "playlist",
        "title": "Love in Trouble",
        "contenttype": "tvshows",
        "tcid_2x3_t": 1163710358,
        "tcid_4x3": 1163361316,
        "total": 40,
        "bgcolor": "#d7cbb2",
        "tcid_4x3_t": 1159284544,
        "paid": false,
        "tver": 2,
        "id": "playlist-24655368",
        "updatetime": 1530410097326,
        "tcid_16x9_t": 1159284571,
        "tcid": 1159360887,
        "slug": "love_in_trouble"
      }, {
        "tcid_16x9": 1163746408,
        "preferred_thumb": "withouttitle",
        "createtime": 1530410099590,
        "playlistItemsCount": 21,
        "description": "&quot;In the year 1609, an alien by the name of Do Min Joon (Kim Soo Hyun) lands on earth during the Joseon Dynasty. He has near perfect appearance and has enhanced vision, hearing and speed.   He misses his trip back to his own planet when he tries to help a young girl from falling off a cliff, leaving him stranded on earth for four centuries. Every 10 years, Min Joon is forced to adopt a new identity because his human appearance never ages.   Now in the 21st century, Min Joon works as a college professor. When his long-awaited departure back to space is only three months away, he meets Cheon Song Yi (Jun Ji Hyun), a famous actress who suddenly becomes his neighbour.   When Jae Kyung finds himself untangled in Song Yi&#8217;s crazy and unpredictable situations, he realises she looks like a young girl he fell in love with in the Joseon era. Will Jae Kyung leave the planet and finally go home, or will he stay for love?&quot;",
        "language": "Korean",
        "type": "playlist",
        "title": "My Love From The Star",
        "contenttype": "tvshows",
        "tcid_2x3_t": 1163710443,
        "tcid_4x3": 1133592409,
        "total": 21,
        "bgcolor": "#202029",
        "tcid_2x3": 1163711465,
        "tcid_4x3_t": 1133592408,
        "paid": false,
        "tver": 7,
        "id": "playlist-21988452",
        "updatetime": 1530410099590,
        "tcid_16x9_t": 1133592410,
        "tcid": 1085654761,
        "slug": "my_love_from_the_star"
      }, {
        "tcid_16x9": 1136930154,
        "preferred_thumb": "withouttitle",
        "createtime": 1530410099385,
        "playlistItemsCount": 19,
        "description": "Drama ini mengisahkan tentang para dokter muda dan prajurit dalam menghadapi masa-masa sulit dan membangun hubungan di negara Uruk yang sedang dilanda perang. Drama Korea \"Descendants of the Sun\" (&#53468;&#50577;&#51032; &#54980;&#50696;) ini mempertemukan dua bintang papan atas, Song Joong Ki dan Song Hye Kyo.  Tonton maraton mereka, dengan tambahan 3 episode spesial, lengkap dengan subtitle bahasa Indonesia. ",
        "language": "Korean",
        "type": "playlist",
        "title": "Descendants of the Sun",
        "contenttype": "tvshows",
        "tcid_2x3_t": 1163710251,
        "tcid_4x3": 1136930152,
        "total": 19,
        "bgcolor": "#4c3c34",
        "tcid_2x3": 1163711467,
        "tcid_4x3_t": 1163460223,
        "paid": false,
        "tver": 3,
        "id": "playlist-22042852",
        "updatetime": 1530410099385,
        "tcid_16x9_t": 1163460224,
        "tcid": 1110683911,
        "slug": "descendants_of_the_sun"
      }, {
        "tcid_16x9": 1133592415,
        "preferred_thumb": "withouttitle",
        "playlistItemsCount": 20,
        "description": "Setelah terjadi kecelakaan medis yang tragis, Hong Ji Hong tidak ingin lagi menjadi dokter. Dihadapkan dengan rasa bersalah, dia memilih hidup tenang sebagai guru biologi SMA. Mungkin didorong oleh takdir, dia menjadi mentor Yoo Hye Jung, seorang murid bermasalah dengan masa kecil yang berat. Cinta meninggalkan bekas mendalam dan mendorong kedua tokoh protagonis itu untuk tumbuh dan berubah. Di dunia yang dinodai oleh kejamnya prasangka, terkadang hanya cintalah yang bisa mengobati.   Kim Rae Won dan Park Shin Hye membuat drakor \"Doctors\" (&#45797;&#53552;&#49828;) semakin penuh dengan pesona. Pastikan kamu tonton setiap episodenya hanya di VIU, yang sudah dilengkapi subtitle bahasa Indonesia. ",
        "language": "Korean",
        "type": "playlist",
        "title": "Doctors",
        "tcid_4x3": 1133592413,
        "total": 20,
        "tcid_2x3": 1163711462,
        "tcid_4x3_t": 1164099272,
        "tver": 5,
        "id": "playlist-22399611",
        "slug": "doctors",
        "createtime": 1530410098937,
        "tagcolor": "#07d6bc",
        "tagtextcolor": "#FFFFFF",
        "contenttype": "tvshows",
        "tcid_2x3_t": 1163710267,
        "bgcolor": "#c8b2aa",
        "paid": false,
        "updatetime": 1530410098937,
        "tcid_16x9_t": 1164099273,
        "tcid": 1123751675,
        "tagtext": "Trending"
      }, {
        "tcid_16x9": 1131379149,
        "preferred_thumb": "withouttitle",
        "createtime": 1530410099857,
        "playlistItemsCount": 25,
        "description": "Seorang gadis pekerja keras dari keluarga biasa, Geum Jan&#173;-di, buka toko laundry di dekat sekolah Shin Hwa, sekolah yang paling bergengsi di Korea Selatan. Pada suatu hari Geum Jan-di mengantarkan laundry milik seorang siswa Shinhwa, yang akan bunuh diri karena stress mendapat bullying dari anggota F4. Jang-di pun menolong anak tersebut lolos dari bunuh diri. Hal ini membuatnya mendapatkan tawaran untuk sekolah di Shinhwa. Setelah masuk sekolah tersebut, Jan-di bertemu dengan F4 dan jatuh cinta dengan salah satu anggotanya.   \"Boys Before Flowers\" (&#44867;&#48372;&#45796; &#45224;&#51088; ) berkisah tentang kehidupan sekelompok orang kaya yang punya kekuasaan dengan harta yang dimilikinya.",
        "language": "Korean",
        "type": "playlist",
        "title": "Boys Over Flowers",
        "contenttype": "tvshows",
        "tcid_2x3_t": 1163710177,
        "tcid_4x3": 1131379145,
        "total": 25,
        "bgcolor": "#1b1614",
        "tcid_2x3": 1163794252,
        "tcid_4x3_t": 1131379142,
        "paid": false,
        "tver": 3,
        "id": "playlist-21988548",
        "updatetime": 1530410099857,
        "tcid_16x9_t": 1131379147,
        "tcid": 1087424522,
        "slug": "boys_over_flowers"
      }, {
        "tcid_16x9": 1117956215,
        "preferred_thumb": "withouttitle",
        "createtime": 1530410099572,
        "playlistItemsCount": 20,
        "description": "&quot;This drama follows the friendships, rivalries and love lives of rich, privileged high school students who are about to take over their family business empires while dealing with growing pains and overcoming challenges.   Kim Tan (Lee Min Ho) is heir to a large Korean conglomerate, Jeguk Group but was exiled to the U.S. when his brother, Kim Won (Choi Jin Hyuk), wants to overtake the family company. Kim Tan meets Cha Eun Sang (Park Shin Hye) when he was in the U.S. Eun Sang used to live with her mother who is a mute that works as a housekeeper, and she went to the U.S. in hopes of starting a better life with her sister.   Kim Tan finds himself quickly falling in love with Eun Sang even though he is actually engaged to Yoo Rachel (Kim Ji Won), another fellow heiress. Things become more complicated when his best friend, Choi Young Do (Kim Woo Bin) begins making peculiar advances to Eun Sang. Kim Tan is now forced to choose between money or love. &quot;",
        "language": "Korean",
        "type": "playlist",
        "title": "The Heirs",
        "contenttype": "tvshows",
        "tcid_2x3_t": 1163669808,
        "tcid_4x3": 1117956172,
        "total": 20,
        "bgcolor": "#bdafa6",
        "tcid_2x3": 1163711460,
        "tcid_4x3_t": 1163460236,
        "paid": false,
        "tver": 7,
        "id": "playlist-21988456",
        "updatetime": 1530410099572,
        "tcid_16x9_t": 1163460237,
        "tcid": 1085665153,
        "slug": "the_heirs"
      }, {
        "tcid_16x9": 1163386471,
        "preferred_thumb": "withouttitle",
        "createtime": 1530410097175,
        "playlistItemsCount": 16,
        "description": "Pada suatu malam di musim semi, pria sempurna jatuh dari langit. Ha Baek (Nam Joo Hyuk), dewa air, raja Kerajaan Air dan maharaja para dewa berikutnya, jatuh di atas psikiater miskin, Yoon So Ah (Shin Se Kyung). Tidak ada yang akan berjalan sesuai rencana dan tidak ada yang bisa terduga dari hubungan romansa wanita dan dewa ini. Ha Baek menganggap So Ah pelayannya, sedangkan So Ah mengira Ha Baek sakit jiwa. Pada drama romantis ini, Ha Baek akan menemukan makna menjadi dewa yang sebenarnya dan So Ah akan menemukan makna hidup dan kebahagiaan.  \"The Bride of Habaek\" (&#54616;&#48177;&#51032; &#49888;&#48512;) ini menjadi salah satu drama Korea bergenre fantasi, yang dirilis pada tahun 2017. ",
        "language": "Korean",
        "type": "playlist",
        "title": "The Bride of Habaek",
        "contenttype": "tvshows",
        "tcid_2x3_t": 1163710581,
        "tcid_4x3": 1163386469,
        "total": 16,
        "bgcolor": "#3d3f47",
        "tcid_2x3": 1163710293,
        "tcid_4x3_t": 1163386466,
        "paid": false,
        "tver": 2,
        "id": "playlist-24837911",
        "updatetime": 1530410097175,
        "tcid_16x9_t": 1163386470,
        "tcid": 1163385883,
        "slug": "the_bride_of_habaek"
      }, {
        "tcid_16x9": 1136827457,
        "preferred_thumb": "withouttitle",
        "createtime": 1530410098634,
        "playlistItemsCount": 16,
        "description": "Kim Je Ha adalah mantan prajurit bayaran yang pernah bekerja untuk negara dan rakyatnya yang dia cintai. Tapi sekarang dia dibuang dan menjadi buron, bahkan INTERPOL mencarinya. Bersumpah untuk tidak mencintai apa pun dan siapa pun lagi, dia bertemu dengan Ko Anna, seorang penyendiri yang baru mengenal dunia setelah 10 tahun.  Aksi Ji Chang Wook tidak diragukan lagi, apalagi di \"The K2\" (&#45908; &#52992;&#51060;&#53804;), dipertemukan dengan salah satu anggota girlband SNSD, Yoona. Drama yang sudah berusia 1 tahun ini, menggabungkan genre aksi dan romansa, dan bisa kamu tonton di VIU dengan subtitle bahasa Indonesia.",
        "language": "Korean",
        "type": "playlist",
        "title": "The K2",
        "contenttype": "tvshows",
        "tcid_2x3_t": 1163740223,
        "tcid_4x3": 1136827453,
        "total": 16,
        "bgcolor": "#26202b",
        "tcid_2x3": 1163740224,
        "tcid_4x3_t": 1133520124,
        "paid": false,
        "tver": 4,
        "id": "playlist-23250435",
        "updatetime": 1530410098634,
        "tcid_16x9_t": 1133520126,
        "tcid": 1133517037,
        "slug": "the_k2"
      }, {
        "tcid_16x9": 1160490960,
        "preferred_thumb": "withouttitle",
        "createtime": 1530410096242,
        "playlistItemsCount": 16,
        "description": "\"Fight for My Way\" (&#49928; &#47560;&#51060;&#50920;&#51060;) berkisah tentang pemuda yang tidak sesuai dengan apa yang diinginkan oleh masyarakat yang kejam. Tanpa latar belakang seperti pendidikan tinggi dan sertifikat, dunia menyuruh mereka untuk fokus sebagai peran pendukung dalam kehidupan mereka sendiri. Saksikan untuk melihat bagaimana perjuangan mereka dan untuk mendapatkan kembali semangat yang tertidur dalam dirimu. Mulai tayang tahun 2017, drama Korea ini memiliki dua bintang utama, yaitu Park Seo Joon dan Kim Ji Won.",
        "language": "Korean",
        "type": "playlist",
        "title": "Fight For My Way",
        "contenttype": "tvshows",
        "tcid_2x3_t": 1163787518,
        "tcid_4x3": 1160490930,
        "total": 16,
        "bgcolor": "#a2aaba",
        "tcid_2x3": 1163710296,
        "tcid_4x3_t": 1160490914,
        "paid": false,
        "tver": 2,
        "id": "playlist-24709485",
        "updatetime": 1530410096242,
        "tcid_16x9_t": 1160490946,
        "tcid": 1160535656,
        "slug": "fight_for_my_way"
      }, {
        "tcid_16x9": 1127049518,
        "preferred_thumb": "withouttitle",
        "playlistItemsCount": 18,
        "description": "Surgeon Oh Yeon-joo (Han Hyo-joo) is pulled into her father&#8217;s written webtoon &#8216;W&#8217; while reading its last chapter on his computer. She finds the main character of W, Kang-chul (Lee Jong-suk) bleeding. She manages to save his life. She learns that she is only able to return to the real world by relying on Kang Chul&#8217;s feelings. Kang Chul searches the faceless villain to seek revenge for killing his family. Also known as W &#8211; Two Worlds and W &#8211; Two Worlds Apart, W (&#45908;&#48660;&#50976;) is a 2016 romance and mystery thriller series that explores the real life and fantasy world of manhwa directed by Jung Dae-Yoon.",
        "language": "Korean",
        "type": "playlist",
        "title": "W",
        "tcid_4x3": 1127049516,
        "total": 18,
        "tcid_2x3": 1163711466,
        "tcid_4x3_t": 1128532638,
        "tver": 4,
        "id": "playlist-22521651",
        "slug": "w",
        "createtime": 1530410098875,
        "tagcolor": "#07d6bc",
        "tagtextcolor": "#FFFFFF",
        "contenttype": "tvshows",
        "tcid_2x3_t": 1163710596,
        "bgcolor": "#886e81",
        "paid": false,
        "updatetime": 1530410098875,
        "tcid_16x9_t": 1128532641,
        "tcid": 1127009048,
        "tagtext": "Trending"
      }, {
        "tcid_16x9": 1163427624,
        "preferred_thumb": "withouttitle",
        "createtime": 1530410098918,
        "playlistItemsCount": 20,
        "description": "&quot;Shin Joon Young (Kim Woo Bind) and Noh Eul (Bae Suzy) were classmates when they children. They were separated when they were teenagers due to an ill-fated relationship, leaving them both heartbroken.   Noh Eul&#8217;s childhood has been tough since her father died in a hit and run, forcing her to quite school and make a living to support herself and her brother. She grows up to become Production Director of documentaries who values money over justice and kisses up to people with more power than her. Meanwhile, Joon Young&#8217;s mother wanted him to become a prosecutor to follow the footsteps of his estranged father, but Joon Young quit law school after an awful incident and pursued his dream of becoming a singer-actor.   The two meet again as adults when Noh Eul is tasked to film a documentary about Joon Young, who is now a very successful actor and singer. The relationship has a rocky start but soon, they each discover what their hearts truly want. &quot;",
        "language": "Korean",
        "type": "playlist",
        "title": "Uncontrollably Fond",
        "contenttype": "tvshows",
        "tcid_2x3_t": 1163710594,
        "tcid_4x3": 1163427622,
        "total": 20,
        "bgcolor": "#cba88d",
        "tcid_2x3": 1163711470,
        "tcid_4x3_t": 1163608339,
        "paid": false,
        "tver": 3,
        "id": "playlist-22446290",
        "updatetime": 1530410098918,
        "tcid_16x9_t": 1163608341,
        "tcid": 1125280165,
        "slug": "uncontrollably_fond"
      }, {
        "tcid_16x9": 1107826655,
        "preferred_thumb": "withouttitle",
        "playlistItemsCount": 20,
        "description": "Seorang dokter bernama Park Chul terpaksa dibuang ke Korea Utara dengan embel-embel menyelamatkan negara dari perang, padahal sebenarnya tidak karena ada permainan licik di dalamnya. Park Chul punya anak laki-laki bernama Park Hoon. Setelah kematian ayahnya, Hoon berhasil kembali ke Korea Selatan dan bekerja sebagai dokter, tapi dia terpaksa kehilangan Jae Hee wanita yang dicintainya, yang dia tahu masih ada di Korea Utara. Di rumah sakit tempatnya bekerja, dia dikucilkan oleh dokter dan pegawai di rumah sakit tersebut sehingga dia menjadi seseorang yang asing. Saksikan K-drama \"Dr. Stranger\" (&#45797;&#53552; &#51060;&#48169;&#51064;) yang disutradarai oleh Jin Hyeok ini hanya di VIU. ",
        "language": "Korean",
        "type": "playlist",
        "title": "Dr. Stranger",
        "tcid_4x3": 1107826617,
        "total": 20,
        "tcid_2x3": 1163710312,
        "tcid_4x3_t": 1107826584,
        "tver": 5,
        "id": "playlist-21988468",
        "slug": "dr_stranger",
        "createtime": 1530410099461,
        "tagcolor": "#07d6bc",
        "tagtextcolor": "#FFFFFF",
        "contenttype": "tvshows",
        "tcid_2x3_t": 1163787504,
        "bgcolor": "#afb3aa",
        "paid": false,
        "updatetime": 1530410099461,
        "tcid_16x9_t": 1107826642,
        "tcid": 1085351158,
        "tagtext": "Trending"
      }, {
        "tcid_16x9": 1107385068,
        "preferred_thumb": "withouttitle",
        "createtime": 1530410098018,
        "playlistItemsCount": 20,
        "description": "Kisah Choi Dal Po, yang menjadi paman Choi In Ha setelah diselamatkan oleh keluarganya. Dal Po awalnya bernama Ki Ha Myung sebelum kecelakaan. Datang dari latar belakang yang rumit, ayahnya, seorang pemadam kebakaran, dituduh atas kecelakaan kebakaran 15 tahun lalu. In Ha, di sisi lain, menderita sindrom \"Pinokio\" yang membuatnya tak bisa berkata bohong. Saat berbohong, dia akan cegukan. Dal Po dan In Ha jadi reporter di dua stasiun TV yang saling bersaing dan mengabdikan diri pada panggilan reportase jurnalisme. Namun saat mereka mulai saling jatuh cinta, Dal Po mengetahui bahwa In Ha adalah anak perempuan musuhnya. Apa yang akan dilakukan Dal Po? Tetap bersama cintanya atau balas dendam demi ayahnya? Penasaran kelanjutan ceritanya? Tonton drama korea Pinocchio (&#54588;&#45432;&#53412;&#50724;) ini yang dibintangi oleh Lee Jong-suk and Park Shin-hye. ",
        "language": "Korean",
        "type": "playlist",
        "title": "Pinocchio",
        "contenttype": "tvshows",
        "tcid_2x3_t": 1163710454,
        "tcid_4x3": 1107385026,
        "total": 20,
        "bgcolor": "#b5adaa",
        "tcid_2x3": 1163710301,
        "tcid_4x3_t": 1107158010,
        "paid": false,
        "tver": 4,
        "id": "playlist-21988464",
        "updatetime": 1530410098018,
        "tcid_16x9_t": 1105772616,
        "tcid": 1085369578,
        "slug": "pinocchio"
      }, {
        "tcid_16x9": 1107826341,
        "preferred_thumb": "withouttitle",
        "playlistItemsCount": 16,
        "description": "Dalam mitologi Yunani, Venus adalah dewi cinta dan simbol dalam kecantikan. Namun sekarang kita hidup di dunia yang matrealistis. Definisi kecantikan pada abad ke 21 telah berganti menjadi kurus adalah indah. Oh My Venus adalah drama komedi romantis yang menunjukkan perjuangan wanita di era sekarang dan mencoba untuk menunjukkan kecantikan fisik bukanlah segalanya. \"Oh My Venus\" (&#50724; &#47560;&#51060; &#48708;&#45320;&#49828;), drama korea paling hot ini pertama kali tayang di KBS2 tahun 2015 dan dibintangi oleh So Ji-sub, Shin Min-a dengan sutradara Kim Hyung-suk.",
        "language": "Korean",
        "type": "playlist",
        "title": "Oh My Venus",
        "tcid_4x3": 1107826318,
        "total": 16,
        "tcid_2x3": 1163711461,
        "tcid_4x3_t": 1163460229,
        "tver": 2,
        "id": "playlist-21988544",
        "slug": "oh_my_venus",
        "createtime": 1530410099947,
        "tagcolor": "#07d6bc",
        "tagtextcolor": "#FFFFFF",
        "contenttype": "tvshows",
        "tcid_2x3_t": 1163710446,
        "bgcolor": "#f5c8c1",
        "paid": false,
        "updatetime": 1530410099947,
        "tcid_16x9_t": 1163460231,
        "tcid": 1106929602,
        "tagtext": "Trending"
      }, {
        "tcid_16x9": 1162881008,
        "preferred_thumb": "withouttitle",
        "createtime": 1530410099516,
        "playlistItemsCount": 20,
        "description": "Kisah drama Korea &#8220;City Hunter&#8221; berawal dari penghianatan para petinggi negara terhadap pasukan khusus Korea yang membuat seorang anggotanya luka parah yang dan gak bisa jalan. Dia akhirnya melatih seorang anak dari sahabatnya yang sudah meninggal untuk membalaskan dendam. Kasus demi kasus akhirnya berdatangan dan terungkap satu persatu, termasuk kasus dari anak Presiden. Apa saja kasus yang terungkap dan bagaimana misi balas dendam ini berjalan? Saksikan serial City Hunter hanya di VIU.  Serial ini diadaptasi dari sebuah manga yang judulnya &#8220;City Hunter&#8221; (&#49884;&#54000;&#54732;&#53552;) oleh Tsukasa Hojo dan diterbitkan Shueisha di Weekly Shonen Jump pada tahun 1985 sampai 1991. ",
        "language": "Korean",
        "type": "playlist",
        "title": "City Hunter",
        "contenttype": "tvshows",
        "tcid_2x3_t": 1163719822,
        "tcid_4x3": 1162880971,
        "total": 20,
        "bgcolor": "#aea59f",
        "tcid_2x3": 1163719822,
        "tcid_4x3_t": 1108076148,
        "paid": false,
        "tver": 3,
        "id": "playlist-21988505",
        "updatetime": 1530410099516,
        "tcid_16x9_t": 1108076152,
        "tcid": 1086688489,
        "slug": "city_hunter"
      }, {
        "tcid_16x9": 1163746376,
        "preferred_thumb": "withouttitle",
        "createtime": 1530410098894,
        "playlistItemsCount": 16,
        "description": "Hyun Ji (Kim So Hyun) adalah hantu perempuan yang kehilangan semua ingatannya dan berkeliaran demi menemukan jejak dari kehidupannya. Sementara Bong Pal (Ok Taecyeon) adalah seorang mahasiswa yang bisa melihat dan menyentuh hantu. Dia memanfaatkan keahliannya untuk menghasilkan uang. Suatu hari, keduanya bertemu dan takdir aneh menjerat mereka.  Walau pertama tayang pada tahun 2016, \"Bring It On, Ghost\" (&#49912;&#50864;&#51088; &#44480;&#49888;&#50500;) yang juga populer dengan judul \"Let's Fight Ghost\" ini tetap menjadi salah satu drama yang paling banyak ditonton pada tahun 2017. Tonton di VIU, dengan subtitle bahasa Indonesia. ",
        "language": "Korean",
        "type": "playlist",
        "title": "Bring It On, Ghost",
        "contenttype": "tvshows",
        "tcid_2x3_t": 1163820669,
        "tcid_4x3": 1126048620,
        "total": 16,
        "bgcolor": "#46496b",
        "tcid_2x3": 1163710306,
        "tcid_4x3_t": 1126048619,
        "paid": false,
        "tver": 2,
        "id": "playlist-22475550",
        "updatetime": 1530410098894,
        "tcid_16x9_t": 1163746367,
        "tcid": 1126033460,
        "slug": "bring_it_on_ghost"
      }, {
        "tcid_16x9": 1129346440,
        "preferred_thumb": "withouttitle",
        "createtime": 1530410098456,
        "playlistItemsCount": 24,
        "description": "&quot;Set in an alternate, 21st-century Korea which has retained its monarchy and imperial family since 1945, this series begins with news that Emperor Lee Hyeon of Korea is seriously ill. The imperial family now needs to find a consort with emperor&#8217;s son, Crown Prince Lee Shin (Ju Ji Hoon), so he can ascend to the throne.   Although the crown prince was in love with the beautiful and talented ballerina, Hyo Rin (Song Ji Hyo), he eventually marries Chae Gyeong (Yoon Eun Hye), an ordinary high school student commoner betrothed to him by his grandfather, the late Emperor Seongjo. Chae Gyeong agreed to the marriage to help her family get out of debt, and though the two come from completely different worlds, love eventually blossoms.   Matters become complicated when dark secrets of affairs and exiled family members come into the picture, leaving the imperial family quarreling over who will succeed the throne. As the crowned princess, Chae Gyeong, adapts to the challenges of royal life, she also has to protect herself from schemes aimed to take her down.&quot;",
        "language": "Korean",
        "type": "playlist",
        "title": "Princess Hours",
        "contenttype": "tvshows",
        "tcid_2x3_t": 1163710472,
        "tcid_4x3": 1129346438,
        "total": 24,
        "bgcolor": "#474239",
        "tcid_2x3": 1163710346,
        "tcid_4x3_t": 1129346437,
        "paid": false,
        "tver": 2,
        "id": "playlist-22422821",
        "updatetime": 1530410098456,
        "tcid_16x9_t": 1129346439,
        "tcid": 1124434746,
        "slug": "princess_hours"
      }, {
        "tcid_16x9": 1133166441,
        "preferred_thumb": "withouttitle",
        "playlistItemsCount": 16,
        "description": "&quot;This delightful romantic comedy follows the unlikely couple Kang Ji Sung, also known as Louis (Seo In Guk) and Ko Bok Sil (Nam Ji Hyun). Louis is from a rich family and loves spending his money on anything that he finds even remotely beautiful. One day, he loses his memory and meets Bok Sil.   Bok Sil is an energetic woman from the countryside with a heart like an angel. She is astounded with Louis&#8217; shopaholic habits! Throughout their budding romance, she begins teaching Louis how to survive on bare necessities while imparting upon him how inexpensive small acts of kindness can be more beautiful than expensive things.   As Louis learns about true love after meeting Bok Sil, so does Bok Sil learn from Louis that bare necessities are not the same for everyone and different values can shape people lives and shopping patterns very differently. The innocence and curiosity they have for each other&#8217;s different lives leads to an undeniable love.&quot;",
        "language": "Korean",
        "type": "playlist",
        "title": "Shopaholic Louis",
        "tcid_4x3": 1133166439,
        "total": 16,
        "tcid_2x3": 1163710309,
        "tcid_4x3_t": 1133166438,
        "tver": 3,
        "id": "playlist-23206339",
        "slug": "shopaholic_louis",
        "createtime": 1530410098599,
        "tagcolor": "#07d6bc",
        "tagtextcolor": "#FFFFFF",
        "contenttype": "tvshows",
        "tcid_2x3_t": 1163710518,
        "bgcolor": "#efbdd6",
        "paid": false,
        "updatetime": 1530410098599,
        "tcid_16x9_t": 1133166440,
        "tcid": 1133151659,
        "tagtext": "Trending"
      }, {
        "tcid_16x9": 1159284514,
        "preferred_thumb": "withouttitle",
        "createtime": 1530410097346,
        "playlistItemsCount": 40,
        "description": "Ada beberapa sumber mata air yang tidak mengering bahkan pada saat musim yang paling kering. Setiap sumber mata air ini sepenuhnya dikuasai oleh individu. Putra Mahkota Yi Sun dan para individu ini ikut serta dalam sebuah 'Perang Air'. Drama ini mempertanyakan hal apa yang paling penting dalam kehidupan dan mendebatkan bahwa ada beberapa hal yang tidak bisa dibeli oleh uang. Terlebih lagi, kisah cinta Sun juga menyemangati para penonton untuk menaklukkan rasa takut akan terluka dan melangkah menuju cinta mereka. Tidak dibutuhkan revolusioner hebat atau pahlawan perkasa untuk membuat perubahan di dunia. Yang dibutuhkan hanyalah melangkah perlahan-lahan. \"The Emperor: Owner of the Mask\" (&#44400;&#51452;-&#44032;&#47732;&#51032; &#51452;&#51064;) juga dikenal dengan judul \"Ruler: Master of the Mask\". Pertama tayang tahun 2017, drakor ini dibintangi Yoo Seung Ho, Kim So Hyun, dan L dari boygroup Infinite. ",
        "language": "Korean",
        "type": "playlist",
        "title": "The Emperor: Owner of the Mask",
        "contenttype": "tvshows",
        "tcid_2x3_t": 1163710547,
        "tcid_4x3": 1159284471,
        "total": 40,
        "bgcolor": "#4d3c3b",
        "tcid_2x3": 1163710289,
        "tcid_4x3_t": 1164614819,
        "paid": false,
        "tver": 2,
        "id": "playlist-24655366",
        "updatetime": 1530410097346,
        "tcid_16x9_t": 1164614823,
        "tcid": 1159330706,
        "slug": "the_emperor_owner_of_the_mask"
      }, {
        "id": ""
      }],
      "bgcolor": "#aba399",
      "logic": "Curated",
      "id": "11_2_10_2",
      "title": "Drama Korea Favorit",
      "type": "list",
      "slug": "all_time_favourites_korean_drama",
      "contenttype": "tvshows"
    }, {
      "containertype": "list",
      "item": [{
        "tcid_16x9": 1122449825,
        "preferred_thumb": "withouttitle",
        "createtime": 1530410096474,
        "playlistItemsCount": 20,
        "description": "&quot;Reply 1988 is the highest rated drama in Korean cable television history when its finale episode aired, receiving both critical and audience acclaim. The drama follows the lives of five best friends growing up together in the same neighbourhood.  Duk Sun (Hyeri), Jung Hwan (Ryoo Joon Yeol), Sun-Woo (Ko Gyung Pyo), and Dong Ryong (Lee Dong Hwi) are high school students while Taek (Park Bo Gum) is a go player. Each have different talents and family backgrounds. Duk Sun&#8217;s family is poor and she enjoys singing and dancing. Jung Hwan&#8217;s family became rich overnight and he loves soccer. Sun Woo is a model student whose father has passed away. Dong Ryong likes dancing. Taek has dropped out of school.  The series follows their everyday lives and reveals the diversity of relationships in different families. From sibling rivalry to parents who fight over money, to caring sons and daughters spoilt by their mother, and the misunderstood father. As these five best friends grow up, they come to learn that love is expressed in many different forms. &quot;",
        "language": "Korean",
        "type": "playlist",
        "title": "Reply 1988",
        "contenttype": "tvshows",
        "tcid_2x3_t": 1163710487,
        "tcid_4x3": 1122449805,
        "total": 20,
        "bgcolor": "#ccbfa9",
        "tcid_4x3_t": 1164786363,
        "paid": false,
        "tver": -1,
        "id": "playlist-22295510",
        "updatetime": 1530410096474,
        "tcid_16x9_t": 1164666184,
        "tcid": 1120937795,
        "slug": "reply_1988"
      }, {
        "tcid_16x9": 1164069840,
        "preferred_thumb": "withouttitle",
        "createtime": 1530410096494,
        "tagcolor": "#07d6bc",
        "playlistItemsCount": 21,
        "language": "Korean",
        "type": "playlist",
        "title": "Reply 1994",
        "tagtextcolor": "#FFFFFF",
        "contenttype": "tvshows",
        "tcid_2x3_t": 1164069841,
        "tcid_4x3": 1164069838,
        "total": 21,
        "bgcolor": "#5b5b5c",
        "tcid_2x3": 1164079470,
        "tcid_4x3_t": 1164069837,
        "paid": false,
        "tver": -1,
        "id": "playlist-25336143",
        "updatetime": 1530410096494,
        "tcid_16x9_t": 1164069839,
        "tcid": 1163798362,
        "tagtext": "Just Added",
        "slug": "reply_1994"
      }, {
        "tcid_16x9": 1108076975,
        "preferred_thumb": "withouttitle",
        "createtime": 1530410096514,
        "playlistItemsCount": 16,
        "language": "Korean",
        "type": "playlist",
        "title": "Bubblegum",
        "contenttype": "tvshows",
        "tcid_2x3_t": 1163787498,
        "tcid_4x3": 1108076943,
        "total": 16,
        "bgcolor": "#896248",
        "tcid_2x3": 1113584767,
        "tcid_4x3_t": 1108076933,
        "paid": false,
        "tver": 2,
        "id": "playlist-22010822",
        "updatetime": 1530410096514,
        "tcid_16x9_t": 1108076964,
        "tcid": 1107572699,
        "slug": "bubblegum"
      }, {
        "tcid_16x9": 1121057727,
        "preferred_thumb": "withouttitle",
        "createtime": 1530410096534,
        "playlistItemsCount": 18,
        "description": "Ada dua gadis dengan nama yang sama, Oh Hae Young, di sebuah SMA. Yang satunya sangat cantik sementara yang satunya tidak. Hubungan naas mereka membuat mereka menderita bahkan setelah 12 tahun, berputar di sekitar satu pria, Do Kyung. Drama korea paling romantis tahun 2016 \"Oh Hae-young, Again\" (&#46608; &#50724;&#54644;&#50689;) bisa kamu tonton online dengan subtittle Indonesia di VIU. Dibintangi oleh Eric Mun, Seo Hyun-jin, Jeon Hye-bin, drakor ini punya 18 episode + 2 episode spesial.",
        "language": "Korean",
        "type": "playlist",
        "title": "Oh Hae Young, Again",
        "contenttype": "tvshows",
        "tcid_2x3_t": 1163787620,
        "tcid_4x3": 1121544115,
        "total": 18,
        "bgcolor": "#ddc6b6",
        "tcid_2x3": 1163711008,
        "tcid_4x3_t": 1121057690,
        "paid": false,
        "tver": -1,
        "id": "playlist-22295514",
        "updatetime": 1530410096534,
        "tcid_16x9_t": 1121057722,
        "tcid": 1120937458,
        "slug": "oh_hae_young_again"
      }, {
        "tcid_16x9": 1109154093,
        "preferred_thumb": "withouttitle",
        "createtime": 1530410096553,
        "playlistItemsCount": 16,
        "language": "Korean",
        "type": "playlist",
        "title": "Signal",
        "contenttype": "tvshows",
        "tcid_2x3_t": 1164786365,
        "tcid_4x3": 1109154071,
        "total": 16,
        "bgcolor": "#3d3230",
        "tcid_2x3": 1163710390,
        "tcid_4x3_t": 1109154063,
        "paid": false,
        "tver": 2,
        "id": "playlist-22010922",
        "updatetime": 1530410096553,
        "tcid_16x9_t": 1164786364,
        "tcid": 1105929111,
        "slug": "signal"
      }, {
        "tcid_16x9": 1163759392,
        "preferred_thumb": "withouttitle",
        "createtime": 1530410096570,
        "playlistItemsCount": 56,
        "description": "Bravo My Life adalah kisah orang yang bertekad menggapai impian. Bum Woo (Hyun Woo) berusaha menjadi aktor selama tujuh tahun. Do Na (Jung Yoo Mi) berusaha keras mewujudkan debutnya. Selama proses itu, Bum Woo belajar mengasihi orang lain. Acara ini mengajarkan pemirsa bahwa untuk menghadapi tantangan dan mambuat perubahan, semua orang harus mengahadapi rasa takut dan kesakitannya.  \"Bravo My Life\" (&#48652;&#46972;&#48372; &#47560;&#51060; &#46972;&#51060;&#54532;) adalah salah satu drama 2017 yang ditayangkan di akhir pekan.",
        "language": "Korean",
        "type": "playlist",
        "title": "Bravo My Life",
        "contenttype": "tvshows",
        "tcid_2x3_t": 1163813810,
        "tcid_4x3": 1163759385,
        "total": 56,
        "bgcolor": "#bda5ab",
        "tcid_2x3": 1163813811,
        "tcid_4x3_t": 1163813808,
        "paid": false,
        "tver": -1,
        "id": "playlist-25087852",
        "updatetime": 1530410096570,
        "tcid_16x9_t": 1163813809,
        "tcid": 1163756241,
        "slug": "bravo_my_life"
      }, {
        "tcid_16x9": 1163813776,
        "preferred_thumb": "withouttitle",
        "createtime": 1530410096596,
        "playlistItemsCount": 120,
        "description": "Ada banyak tipe ibu dalam cerita ini. Ibu yang mengorbankan hidup untuk anaknya, ibu yang lebih menyayangi dirinya daripada anaknya, ibu yang tidak menyadari tugasnya sebagai ibu dan menyulitkan anaknya, serta ibu yang meski tidak melahirkan anaknya sendiri, dia tetap membesarkan mereka dengan cinta dan kasih sayang. Hubungan darah dan hukum adalah hal yang membantu kita menjalani hidup dari hari ke hari. Namun, di luar hubungan darah dan hukum, ada ikatan yang lebih kuat antara manusia yaitu cinta. Cerita ini adalah tentang bagaimana cinta menyatukan semua orang. \"Hate to Love You\" (&#48120;&#50892;&#46020; &#49324;&#46993;&#54644;) adalah drama korea terbaru 2017 yang dibintangi oleh Lee Sung Yul, Han Hye Rin, Pyo Ye Jin dan masih banyak lagi. Tonton serial-nya di VIU.",
        "language": "Korean",
        "type": "playlist",
        "title": "Hate to Love You",
        "contenttype": "tvshows",
        "tcid_2x3_t": 1164215817,
        "tcid_4x3": 1163813772,
        "total": 120,
        "bgcolor": "#d8bbb8",
        "tcid_2x3": 1164215817,
        "tcid_4x3_t": 1163813771,
        "paid": false,
        "tver": -1,
        "id": "playlist-25207301",
        "updatetime": 1530410096596,
        "tcid_16x9_t": 1163813773,
        "tcid": 1163810354,
        "slug": "hate_to_love_you"
      }, {
        "tcid_16x9": 1163904700,
        "preferred_thumb": "withouttitle",
        "createtime": 1530410096616,
        "playlistItemsCount": 123,
        "description": "Perempuan menjadi tulang punggung. Yup, ini yang dialami oleh seorang perempuan bernama Choi Tae Ran setelah ayahnya selingkuh 10 tahun yang lalu. Di usianya yang menginjak 40 tahun, ia jatuh cinta dengan seorang pria yang usianya jauh lebih muda. Dengan genre melodrama, drama korea ini  bisa bikin kamu mengharu biru saat nonton online atau offline dengan cara men-download setiap seri-nya dan tonton kemudian hari. \"Forever Enemies a.k.a Enemies from the Past\" (&#51204;&#49373;&#50640; &#50924;&#49688;&#46308;) disutradarai oleh Kim Heung-Dong, terdiri dari 120 episode. Semuanya bisa kamu tonton di VIU dengan subtitle bahasa Indonesia.",
        "language": "Korean",
        "type": "playlist",
        "title": "Forever Enemies",
        "contenttype": "tvshows",
        "tcid_2x3_t": 1164268263,
        "tcid_4x3": 1163904698,
        "total": 123,
        "bgcolor": "#81929b",
        "tcid_4x3_t": 1163904696,
        "paid": false,
        "tver": -1,
        "id": "playlist-25261294",
        "updatetime": 1530410096616,
        "tcid_16x9_t": 1163904699,
        "tcid": 1163900082,
        "slug": "forever_enemies"
      }, {
        "tcid_16x9": 1164197606,
        "preferred_thumb": "withtitle",
        "playlistItemsCount": 12,
        "description": "Do Hyun Woo (Lee Sun Kyun) is a producer who is happy with life. Married to the love of his life and father to an adorable son, the illusion of his happiness crumbles when he sees suspicious messages from a stranger on his wife&#8217;s phone. He begins to suspect that his seemingly perfect wife, Soo Yeon (Song Ji Hyo), is cheating on him. Desperate to save his marriage but not knowing who to turn to, Hyun Woo seeks anonymous advice from people on online social networks. Filled with the michiefs of the unfaithful lawyer, a husband&#8217;s determination to save his marriage through online community marriage counselling, and the side romance of two television producers, the series touches upon the human nature of affairs, its motivations and consequences.",
        "language": "Korean",
        "type": "playlist",
        "title": "Listen to Love",
        "tcid_4x3": 1164197604,
        "total": 12,
        "tcid_2x3": 1164215824,
        "tcid_4x3_t": 1164197603,
        "tver": -1,
        "id": "playlist-25425952",
        "slug": "listen_to_love",
        "createtime": 1530410096639,
        "tagcolor": "#07d6bc",
        "tagtextcolor": "#FFFFFF",
        "contenttype": "tvshows",
        "tcid_2x3_t": 1164669020,
        "bgcolor": "#83a8b6",
        "paid": false,
        "updatetime": 1530410096639,
        "tcid_16x9_t": 1164197605,
        "tcid": 1164166273,
        "tagtext": "Just Added"
      }, {
        "tcid_16x9": 1164217256,
        "preferred_thumb": "withouttitle",
        "createtime": 1530410096659,
        "tagcolor": "#07d6bc",
        "playlistItemsCount": 30,
        "language": "Korean",
        "type": "playlist",
        "title": "Marry Me Now?",
        "tagtextcolor": "#FFFFFF",
        "contenttype": "tvshows",
        "tcid_2x3_t": 1164266337,
        "tcid_4x3": 1164217254,
        "total": 30,
        "bgcolor": "#d5bda9",
        "tcid_2x3": 1164266337,
        "tcid_4x3_t": 1164225639,
        "paid": false,
        "tver": -1,
        "id": "playlist-25452845",
        "updatetime": 1530410096659,
        "tcid_16x9_t": 1164225640,
        "tcid": 1164219561,
        "tagtext": "Fresh",
        "slug": "marry_me_now"
      }, {
        "tcid_16x9": 1164277909,
        "preferred_thumb": "withtitle",
        "createtime": 1530410096679,
        "playlistItemsCount": 24,
        "language": "Korean",
        "type": "playlist",
        "title": "My Husband, Mr. Oh",
        "contenttype": "tvshows",
        "tcid_2x3_t": 1164298196,
        "tcid_4x3": 1164191624,
        "total": 24,
        "bgcolor": "#63b1b8",
        "tcid_4x3_t": 1164229156,
        "paid": false,
        "tver": -1,
        "id": "playlist-25438880",
        "updatetime": 1530410096679,
        "tcid_16x9_t": 1164229157,
        "tcid": 1164191418,
        "slug": "my_husband_mr_oh"
      }, {
        "tcid_16x9": 1164183453,
        "preferred_thumb": "withtitle",
        "playlistItemsCount": 16,
        "description": "Go Hye Rim (Han Ye Seul) is a famous fortune teller known as &#8220;Madame Antoine&#8221;, because she portrays herself as someone whose fortune telling abilities are due to her spiritual connection to Marie Antoinette, the famous French queen. Hye Rim does not actually have any psychic abilities however. Rather, she is simply a skilled cold reader with a keen sense for details, a knack for following hunches, and the intelligence to see through people&#8217;s stories. Meanwhile, Choi Soo Hyeon (Sung Joon) is a psychotherapist known as the &#8216;Soul Doctor&#8217; amongst Hollywood stars. The highly eligible bachelor specializes in women&#8217;s psychology, and his goal is to prove true love does not exist. Coincidentally, his psychological treatment centre is called Madame Antoine. The two cross paths when Hye Rim takes is tricked into taking part in a psychological test project at Soo Hyeon&#8217;s treatment centre. Is true love possible amidst lies and hidden motives?",
        "language": "Korean",
        "type": "playlist",
        "title": "Madame Antoine",
        "tcid_4x3": 1164183451,
        "total": 16,
        "tcid_2x3": 1164215838,
        "tcid_4x3_t": 1164666211,
        "tver": 2,
        "id": "playlist-25425953",
        "slug": "madame_antoine",
        "createtime": 1530410096697,
        "tagcolor": "#07d6bc",
        "tagtextcolor": "#FFFFFF",
        "contenttype": "tvshows",
        "tcid_2x3_t": 1164215838,
        "bgcolor": "#5b3d3c",
        "paid": false,
        "updatetime": 1530410096697,
        "tcid_16x9_t": 1164631667,
        "tcid": 1164166235,
        "tagtext": "Just Added"
      }, {
        "tcid_16x9": 1164161463,
        "preferred_thumb": "withouttitle",
        "createtime": 1530410096713,
        "playlistItemsCount": 40,
        "description": "A melodrama that evolves around a rectangular romance of four middle-aged individuals, who seem to have lost faith in love. Divorced flight attendant An Soon-jin (Kim Sun-a) loses her daughter and becomes obsessed in making herself better, rebuffs any romance that comes along the way. In due course, she meets production director, Son Moo-han (Kam Woo-sung), who is a bachelor and committed man. As tension grows, they are trapped between platonic relationship and possible romantic attraction, which complicates each other&#8217;s desires and feelings that long for emotional need and passion, and insecurities for their lives beyond.",
        "language": "Korean",
        "type": "playlist",
        "title": "Shall We Kiss First",
        "contenttype": "tvshows",
        "tcid_2x3_t": 1164210757,
        "tcid_4x3": 1164161461,
        "total": 40,
        "bgcolor": "#b9cbbe",
        "tcid_2x3": 1164161465,
        "tcid_4x3_t": 1164210755,
        "paid": false,
        "tver": 2,
        "id": "playlist-25422724",
        "updatetime": 1530410096713,
        "tcid_16x9_t": 1164210756,
        "tcid": 1164165077,
        "slug": "shall_we_kiss_first"
      }, {
        "tcid_16x9": 1163925832,
        "preferred_thumb": "withouttitle",
        "createtime": 1530410096734,
        "playlistItemsCount": 16,
        "description": "Pernahkah kalian mendengar tentang pemain akrobat? Mereka adalah sebutan bagi pegawai kantoran yang piawai dan selalu ada saat bos memerlukan mereka. Para pemain akrobat ini bisa mengerjakan beberapa tugas dalam satu waktu dan membantu siapa pun yang membutuhkan. Drama perkantoran ini menceritakan kehidupan sibuk para sekretaris dan masalah yang mereka hadapi selama bekerja dengan bos yang keras kepala dan tidak bisa diajak berkompromi. \"Jugglers\" (&#51200;&#44544;&#47084;&#49828;) adalah drama Korea yang tayang tahun 2017 dan dibintangi Baek Jin Hee, Daniel Choi. ",
        "language": "Korean",
        "type": "playlist",
        "title": "Jugglers",
        "contenttype": "tvshows",
        "tcid_2x3_t": 1164092747,
        "tcid_4x3": 1163925824,
        "total": 16,
        "bgcolor": "#99a68b",
        "tcid_2x3": 1163925836,
        "tcid_4x3_t": 1164092745,
        "paid": false,
        "tver": -1,
        "id": "playlist-25276665",
        "updatetime": 1530410096734,
        "tcid_16x9_t": 1164092746,
        "tcid": 1163921391,
        "slug": "jugglers"
      }, {
        "tcid_16x9": 1122633533,
        "preferred_thumb": "withouttitle",
        "playlistItemsCount": 20,
        "description": "&quot;When Queen Shim (Jang Hee Jin) was unable to conceive, she seeks help from a shaman named Hong Joo (Yum Jung Ah). Hong Joo persuaded the royal queen to deceive a young shaman, Hae Ran (Jung In Seon (ko)), to use her special abilities to sleep with the king and become pregnant. Using powerful black magic, Hong Joo transfers Hae Ran&#8217;s foetus to Queen Shim who later gives birth to a twin boy and girl, Soon Hwae (Yeo Hoe Hyun) and Seo Ri (Kim Sae Ron).   But the dark sorcery left Princess Seo Ri cursed. Queen Shim left the young princess deep in the mountains to die, but Seo Ri was rescued by the father of Poong Yeon (Kwak Shi Yang). Growing up alongside Poong Yeon and her shaman helper Choi Hyun Seo (Lee Sung Jae), Seo Ri becomes a witch on a mission to lift her own curse.   Now a beautiful young woman, Seo Ri meets the royal physician Heo Jun (Yoon Shi Yoon). Can he help change the fate of a cursed princess? &quot;",
        "language": "Korean",
        "type": "playlist",
        "title": "Secret Healer",
        "tcid_4x3": 1122633531,
        "total": 20,
        "tcid_2x3": 1164202120,
        "tcid_4x3_t": 1164202863,
        "tver": 2,
        "id": "playlist-22349978",
        "slug": "secret_healer",
        "createtime": 1530410096752,
        "tagcolor": "#07d6bc",
        "tagtextcolor": "#FFFFFF",
        "contenttype": "tvshows",
        "tcid_2x3_t": 1164202866,
        "bgcolor": "#ab9293",
        "paid": false,
        "updatetime": 1530410096752,
        "tcid_16x9_t": 1164202864,
        "tcid": 1122396538,
        "tagtext": "Just Added"
      }, {
        "tcid_16x9": 1163944453,
        "preferred_thumb": "withouttitle",
        "createtime": 1530410096772,
        "tagcolor": "#07d6bc",
        "playlistItemsCount": 16,
        "description": "Cha Chi-soo (Jung Il-woo) is a high school senior without care for the world. He even failed to attend a school in New York City, much to the dismay of his wealthy father. The arrogant brat only likes to do one thing: seduce women with his good looks and deep pockets. Then came Yang Eun-bi (Lee Chung-ah), a university student in her mid-20s preparing for her civil service exam with the dream of being a high school teacher. Eun-bi was initially attracted to Chi-soo, until she found out he was only a high school senior! Their paths crossed when her teaching assignment finds her not only working at the high school that Chi-soo&apos;s family owns, but teaching his homeroom class! She loses her teaching assignment because of her conflicts with Chi-soo, who eventually will stand in the way of the destruction of her father&#8217;s legacy. Will Eun-bi have it in her to look beyond the obvious and truly see Chi-soo for what he is?",
        "language": "Korean",
        "type": "playlist",
        "title": "Flower Boy Ramen Shop",
        "tagtextcolor": "#FFFFFF",
        "contenttype": "tvshows",
        "tcid_2x3_t": 1163944458,
        "tcid_4x3": 1163944449,
        "total": 16,
        "bgcolor": "#bfaba6",
        "tcid_4x3_t": 1163944447,
        "paid": false,
        "tver": 2,
        "id": "playlist-24949818",
        "updatetime": 1530410096772,
        "tcid_16x9_t": 1163944452,
        "tcid": 1163659084,
        "tagtext": "Just Added",
        "slug": "flower_boy_ramen_shop"
      }, {
        "tcid_16x9": 1163798367,
        "preferred_thumb": "withouttitle",
        "createtime": 1530410096790,
        "tagcolor": "#07d6bc",
        "playlistItemsCount": 16,
        "description": "Kang Ho-Gu is your typical nice guy. Too nice, in fact, to land a girlfriend.The girls tend to take advantage of his sweet nature before placing him in the friend zone. Try as he might, he does not have any game with women whatsoever.  One day, he attends a high school reunion, and runs into Do Do-Hee. She&#8217;s a highly motivated athlete in the Korean national swimming team, with a burning desire to finally win a Gold medal. Ho-Gu had a crush on her back in his teens; she&#8217;s the most popular girl in school, after all. To his surprise, Do-Hee actually remembers Ho-Gu after all these years.   Ho-Gu takes this chance to spend time with her, and soon discovers a secret that could ruin Do-Hee&#8217;s life: she&#8217;s pregnant. Ho-Gu becomes involved in a complicated romantic relationship as they deal with the consequences of this secret.",
        "language": "Korean",
        "type": "playlist",
        "title": "Hogu's Love",
        "tagtextcolor": "#FFFFFF",
        "contenttype": "tvshows",
        "tcid_2x3_t": 1164169231,
        "tcid_4x3": 1163798365,
        "total": 16,
        "bgcolor": "#bee3eb",
        "tcid_4x3_t": 1164169229,
        "paid": false,
        "tver": -1,
        "id": "playlist-25028185",
        "updatetime": 1530410096790,
        "tcid_16x9_t": 1164169230,
        "tcid": 1163706553,
        "tagtext": "Just Added",
        "slug": "hogu_love"
      }, {
        "tcid_16x9": 1164147635,
        "preferred_thumb": "withtitle",
        "createtime": 1530410096806,
        "tagcolor": "#07d6bc",
        "playlistItemsCount": 16,
        "language": "Korean",
        "type": "playlist",
        "title": "Strong Woman Do Bong Soon",
        "tagtextcolor": "#FFFFFF",
        "contenttype": "tvshows",
        "tcid_2x3_t": 1164147796,
        "tcid_4x3": 1164147629,
        "total": 16,
        "bgcolor": "#d498a4",
        "tcid_4x3_t": 1164147794,
        "paid": false,
        "tver": -1,
        "id": "playlist-25412927",
        "updatetime": 1530410096806,
        "tcid_16x9_t": 1164147795,
        "tcid": 1164041513,
        "tagtext": "Just Added",
        "slug": "strong_woman_do_bong_soon"
      }, {
        "tcid_16x9": 1164116460,
        "preferred_thumb": "withouttitle",
        "createtime": 1530410096825,
        "playlistItemsCount": 16,
        "description": "Sebuah jasad ditemukan dan tiga tersangka disidik. Siapa dan apa alasan pembunuhnya? Dari beberapa pernyataan berbeda, kebenaran pun perlahan terungkap. Semua orang menginginkan hal lebih dan hidup lebih baik daripada orang lain. Hasrat untuk sukses bermula dari hati yang suci. Namun, tujuan itu adalah hal yang tidak akan bisa dipuaskan. Tayangan ini menunjukkan sikap orang-orang yang hanya menginginkan kehidupan yang lebih baik dalam mencapai tujuannya.  Tv drama korea terbaru Misty\" (&#48120;&#49828;&#54000;) bisa kamu tonton secara streaming, gratis dengan subtittle Indonesia hanya di VIU. Drama ini dibintangi oleh Kim Nam-joo dan Ji Jin-hee.",
        "language": "Korean",
        "type": "playlist",
        "title": "Misty",
        "contenttype": "tvshows",
        "tcid_2x3_t": 1164140933,
        "tcid_4x3": 1164116458,
        "total": 16,
        "bgcolor": "#2c2625",
        "tcid_2x3": 1164116262,
        "tcid_4x3_t": 1164140930,
        "paid": false,
        "tver": 2,
        "id": "playlist-25394529",
        "updatetime": 1530410096825,
        "tcid_16x9_t": 1164140932,
        "tcid": 1164120117,
        "slug": "misty"
      }, {
        "tcid_16x9": 1164124687,
        "preferred_thumb": "withouttitle",
        "createtime": 1530410096855,
        "playlistItemsCount": 22,
        "description": "Three men find themselves far from their dreams in show business. Kang Dong-Goo wants to be a movie director. Cheon Joon-Ki wants to be an actor like his father. Bong Doo-Sik wants to be a writer.  But all they could muster is running a guest house in Itaewon called Waikiki. And even that is facing a sad end as the house faces bankruptcy. They can&#8217;t even pay the water bill. One day, things turn around as the guest house finds a new patron Yoon-Ah, a clumsy single mother and her baby.  Watch as the three men climb the steepest hills to attain their dream roles, while having to deal with Yoon-Ah as she becomes involved in their lives, and one of their love lives.",
        "language": "Korean",
        "type": "playlist",
        "title": "Welcome to Waikiki",
        "contenttype": "tvshows",
        "tcid_2x3_t": 1164215691,
        "tcid_4x3": 1164124680,
        "total": 22,
        "bgcolor": "#e0c28f",
        "tcid_2x3": 1164215691,
        "tcid_4x3_t": 1164169179,
        "paid": false,
        "tver": -1,
        "id": "playlist-25400565",
        "updatetime": 1530410096855,
        "tcid_16x9_t": 1164169180,
        "tcid": 1164126339,
        "slug": "welcome_to_waikiki"
      }, {
        "id": ""
      }],
      "bgcolor": "#1f1c1b",
      "logic": "Curated",
      "id": "2_2_10_2",
      "title": "Drama Korea Pilihan",
      "type": "list",
      "slug": "selected_korean_drama",
      "contenttype": "tvshows"
    }]
  }
}
