{
  "url": "https://www.viu.com/ott/web/api/users/v2/signout?iid=06289d37-5708-4c81-b59c-38850545bc4b&ver=1.0&fmt=json&aver=5.0&appver=2.0&appid=viu_desktop&platform=desktop",
  "method": "POST",
  "response": {"vuserid":"viu-guest-06289d37-5708-4c81-b59c-38850545bc4b"}
}
